---
http_interactions:
- request:
    method: get
    uri: https://dev-ansible-tower3.example.com/api/v1/activity_stream?order_by=-id
    body:
      encoding: US-ASCII
      string: ''
    headers:
      Authorization:
      - Basic YWRtaW46c21hcnR2bQ==
      User-Agent:
      - Faraday v0.9.2
      Accept-Encoding:
      - gzip;q=1.0,deflate;q=0.6,identity;q=0.3
      Accept:
      - "*/*"
  response:
    status:
      code: 301
      message: Moved Permanently
    headers:
      Server:
      - nginx/1.12.2
      Date:
      - Fri, 20 Apr 2018 12:03:51 GMT
      Content-Type:
      - text/html
      Content-Length:
      - '185'
      Location:
      - https://dev-ansible-tower3.example.com/api/v1/activity_stream/?order_by=-id
      Connection:
      - keep-alive
      Strict-Transport-Security:
      - max-age=15768000
      X-Frame-Options:
      - DENY
    body:
      encoding: UTF-8
      string: "<html>\r\n<head><title>301 Moved Permanently</title></head>\r\n<body
        bgcolor=\"white\">\r\n<center><h1>301 Moved Permanently</h1></center>\r\n<hr><center>nginx/1.12.2</center>\r\n</body>\r\n</html>\r\n"
    http_version: 
  recorded_at: Fri, 20 Apr 2018 12:03:40 GMT
- request:
    method: get
    uri: https://dev-ansible-tower3.example.com/api/v1/activity_stream/?order_by=-id
    body:
      encoding: US-ASCII
      string: ''
    headers:
      Authorization:
      - Basic YWRtaW46c21hcnR2bQ==
      User-Agent:
      - Faraday v0.9.2
      Accept-Encoding:
      - gzip;q=1.0,deflate;q=0.6,identity;q=0.3
      Accept:
      - "*/*"
  response:
    status:
      code: 200
      message: OK
    headers:
      Server:
      - nginx/1.12.2
      Date:
      - Fri, 20 Apr 2018 12:03:52 GMT
      Content-Type:
      - application/json
      Transfer-Encoding:
      - chunked
      Connection:
      - keep-alive
      X-Api-Time:
      - 0.828s
      X-Api-Total-Time:
      - 0.839s
      Allow:
      - GET, HEAD, OPTIONS
      Content-Language:
      - en
      Vary:
      - Accept, Accept-Language, Cookie
      X-Api-Node:
      - localhost
      Strict-Transport-Security:
      - max-age=15768000
      X-Frame-Options:
      - DENY
    body:
      encoding: UTF-8
      string: '{"count":965,"next":"/api/v1/activity_stream/?order_by=-id&page=2","previous":null,"results":[{"id":965,"type":"activity_stream","url":"/api/v1/activity_stream/965/","related":{"actor":"/api/v1/users/1/"},"summary_fields":{"actor":{"username":"admin","first_name":"","last_name":"","id":1}},"timestamp":"2018-04-20T11:46:40.972125Z","operation":"delete","changes":{"inputs":"hidden","admin_role":"Role
        object","modified_by":"admin","description":"","created":"2018-04-20 11:40:40.611224+00:00","modified":"2018-04-20
        11:40:40.659707+00:00","created_by":"admin","credential_type":"Machine-1","read_role":"Role
        object","organization":"spec_test_org","use_role":"Role object","id":271,"name":"test_stream"},"object1":"credential","object2":"","object_association":""},{"id":964,"type":"activity_stream","url":"/api/v1/activity_stream/964/","related":{"credential":["/api/v1/credentials/272/"],"role":["/api/v1/roles/1303/"],"user":["/api/v1/users/1/"],"actor":"/api/v1/users/1/"},"summary_fields":{"credential":[{"kind":"vault","credential_type_id":3,"description":"","id":272,"cloud":false,"name":"hello_vault_cred"}],"user":[{"username":"admin","first_name":"","last_name":"","id":1}],"role":[{"id":1303,"role_field":"admin_role"}],"actor":{"username":"admin","first_name":"","last_name":"","id":1}},"timestamp":"2018-04-20T11:46:17.591765Z","operation":"associate","changes":{"relationship":"awx.main.models.rbac.Role_members","object2_pk":1,"object1":"credential","object2":"user","object1_pk":272,"action":"associate"},"object1":"credential","object2":"user","object_association":"role"},{"id":963,"type":"activity_stream","url":"/api/v1/activity_stream/963/","related":{"credential":["/api/v1/credentials/272/"],"actor":"/api/v1/users/1/"},"summary_fields":{"credential":[{"kind":"vault","credential_type_id":3,"description":"","id":272,"cloud":false,"name":"hello_vault_cred"}],"actor":{"username":"admin","first_name":"","last_name":"","id":1}},"timestamp":"2018-04-20T11:46:17.573089Z","operation":"create","changes":{"inputs":"hidden","description":"","credential_type":"Vault-3","organization":"spec_test_org","id":272,"name":"hello_vault_cred"},"object1":"credential","object2":"","object_association":""},{"id":962,"type":"activity_stream","url":"/api/v1/activity_stream/962/","related":{"credential":["/api/v1/credentials/3/"],"actor":"/api/v1/users/1/"},"summary_fields":{"credential":[{"kind":"vault","credential_type_id":3,"description":"","id":3,"cloud":false,"name":"machine"}],"actor":{"username":"admin","first_name":"","last_name":"","id":1}},"timestamp":"2018-04-20T11:45:51.675900Z","operation":"update","changes":{"name":["muchine","machine"]},"object1":"credential","object2":"","object_association":""},{"id":961,"type":"activity_stream","url":"/api/v1/activity_stream/961/","related":{"user":["/api/v1/users/1/"],"actor":"/api/v1/users/1/"},"summary_fields":{"user":[{"username":"admin","first_name":"","last_name":"","id":1}],"actor":{"username":"admin","first_name":"","last_name":"","id":1}},"timestamp":"2018-04-20T11:40:40.670599Z","operation":"associate","changes":{"relationship":"awx.main.models.rbac.Role_members","object2_pk":1,"object1":"credential","object2":"user","object1_pk":271,"action":"associate"},"object1":"credential","object2":"user","object_association":"role"},{"id":960,"type":"activity_stream","url":"/api/v1/activity_stream/960/","related":{"actor":"/api/v1/users/1/"},"summary_fields":{"actor":{"username":"admin","first_name":"","last_name":"","id":1}},"timestamp":"2018-04-20T11:40:40.653425Z","operation":"create","changes":{"inputs":"hidden","description":"","credential_type":"Machine-1","organization":"spec_test_org","id":271,"name":"test_stream"},"object1":"credential","object2":"","object_association":""},{"id":959,"type":"activity_stream","url":"/api/v1/activity_stream/959/","related":{"job_template":["/api/v1/job_templates/73/"],"role":["/api/v1/roles/1299/"],"user":["/api/v1/users/1/"],"actor":"/api/v1/users/1/"},"summary_fields":{"user":[{"username":"admin","first_name":"","last_name":"","id":1}],"job_template":[{"description":"test
        job with survey spec","id":73,"name":"hello_template_with_survey"}],"role":[{"id":1299,"role_field":"admin_role"}],"actor":{"username":"admin","first_name":"","last_name":"","id":1}},"timestamp":"2018-04-20T11:29:08.326174Z","operation":"associate","changes":{"relationship":"awx.main.models.rbac.Role_members","object2_pk":1,"object1":"job_template","object2":"user","object1_pk":73,"action":"associate"},"object1":"job_template","object2":"user","object_association":"role"},{"id":958,"type":"activity_stream","url":"/api/v1/activity_stream/958/","related":{"job_template":["/api/v1/job_templates/73/"],"actor":"/api/v1/users/1/"},"summary_fields":{"job_template":[{"description":"test
        job with survey spec","id":73,"name":"hello_template_with_survey"}],"actor":{"username":"admin","first_name":"","last_name":"","id":1}},"timestamp":"2018-04-20T11:29:08.262289Z","operation":"create","changes":{"ask_tags_on_launch":false,"job_type":"run","skip_tags":"","ask_verbosity_on_launch":false,"playbook":"hello_world.yml","id":73,"survey_enabled":true,"force_handlers":false,"ask_diff_mode_on_launch":false,"job_tags":"","diff_mode":false,"ask_inventory_on_launch":false,"inventory":"hello_inventory-24","forks":0,"vault_credential":null,"become_enabled":false,"credential":"hello_machine_cred-264","description":"test
        job with survey spec","ask_variables_on_launch":false,"ask_job_type_on_launch":false,"start_at_task":"","ask_limit_on_launch":false,"host_config_key":"","ask_skip_tags_on_launch":false,"use_fact_cache":false,"name":"hello_template_with_survey","ask_credential_on_launch":false,"extra_vars":"","verbosity":0,"allow_simultaneous":false,"project":"hello_repo-70","limit":"","timeout":0},"object1":"job_template","object2":"","object_association":""},{"id":957,"type":"activity_stream","url":"/api/v1/activity_stream/957/","related":{"job_template":["/api/v1/job_templates/72/"],"role":["/api/v1/roles/1296/"],"user":["/api/v1/users/1/"],"actor":"/api/v1/users/1/"},"summary_fields":{"user":[{"username":"admin","first_name":"","last_name":"","id":1}],"job_template":[{"description":"test
        job","id":72,"name":"hello_template"}],"role":[{"id":1296,"role_field":"admin_role"}],"actor":{"username":"admin","first_name":"","last_name":"","id":1}},"timestamp":"2018-04-20T11:29:06.660430Z","operation":"associate","changes":{"relationship":"awx.main.models.rbac.Role_members","object2_pk":1,"object1":"job_template","object2":"user","object1_pk":72,"action":"associate"},"object1":"job_template","object2":"user","object_association":"role"},{"id":956,"type":"activity_stream","url":"/api/v1/activity_stream/956/","related":{"credential":["/api/v1/credentials/265/"],"job_template":["/api/v1/job_templates/72/"],"actor":"/api/v1/users/1/"},"summary_fields":{"credential":[{"kind":"net","credential_type_id":4,"description":"","id":265,"cloud":false,"name":"hello_network_cred"}],"job_template":[{"description":"test
        job","id":72,"name":"hello_template"}],"actor":{"username":"admin","first_name":"","last_name":"","id":1}},"timestamp":"2018-04-20T11:29:06.586891Z","operation":"associate","changes":{"relationship":"awx.main.models.jobs.JobTemplate_extra_credentials","object2_pk":265,"object1":"job_template","object2":"credential","object1_pk":72,"action":"associate"},"object1":"job_template","object2":"credential","object_association":"extra"},{"id":955,"type":"activity_stream","url":"/api/v1/activity_stream/955/","related":{"credential":["/api/v1/credentials/266/"],"job_template":["/api/v1/job_templates/72/"],"actor":"/api/v1/users/1/"},"summary_fields":{"credential":[{"kind":"aws","credential_type_id":5,"description":"","id":266,"cloud":true,"name":"hello_aws_cred"}],"job_template":[{"description":"test
        job","id":72,"name":"hello_template"}],"actor":{"username":"admin","first_name":"","last_name":"","id":1}},"timestamp":"2018-04-20T11:29:06.574086Z","operation":"associate","changes":{"relationship":"awx.main.models.jobs.JobTemplate_extra_credentials","object2_pk":266,"object1":"job_template","object2":"credential","object1_pk":72,"action":"associate"},"object1":"job_template","object2":"credential","object_association":"extra"},{"id":954,"type":"activity_stream","url":"/api/v1/activity_stream/954/","related":{"job_template":["/api/v1/job_templates/72/"],"actor":"/api/v1/users/1/"},"summary_fields":{"job_template":[{"description":"test
        job","id":72,"name":"hello_template"}],"actor":{"username":"admin","first_name":"","last_name":"","id":1}},"timestamp":"2018-04-20T11:29:06.560113Z","operation":"create","changes":{"ask_tags_on_launch":false,"job_type":"run","skip_tags":"","ask_verbosity_on_launch":false,"playbook":"hello_world.yml","id":72,"survey_enabled":false,"force_handlers":false,"ask_diff_mode_on_launch":false,"job_tags":"","diff_mode":false,"ask_inventory_on_launch":false,"inventory":"hello_inventory-24","forks":0,"vault_credential":null,"become_enabled":false,"credential":"hello_machine_cred-264","description":"test
        job","ask_variables_on_launch":false,"ask_job_type_on_launch":false,"start_at_task":"","ask_limit_on_launch":false,"host_config_key":"","ask_skip_tags_on_launch":false,"use_fact_cache":false,"name":"hello_template","ask_credential_on_launch":false,"extra_vars":"","verbosity":0,"allow_simultaneous":false,"project":"hello_repo-70","limit":"","timeout":0},"object1":"job_template","object2":"","object_association":""},{"id":953,"type":"activity_stream","url":"/api/v1/activity_stream/953/","related":{"project":["/api/v1/projects/71/"],"actor":"/api/v1/users/1/"},"summary_fields":{"project":[{"status":"successful","description":"","id":71,"scm_type":"git","name":"another_repo"}],"actor":{"username":"admin","first_name":"","last_name":"","id":1}},"timestamp":"2018-04-20T11:28:55.035476Z","operation":"create","changes":{"credential":"hello_scm_cred-263","scm_branch":"","name":"another_repo","scm_update_cache_timeout":0,"scm_clean":false,"scm_url":"https://github.com/jameswnl/ansible-examples","scm_delete_on_update":false,"local_path":"","scm_type":"git","timeout":0,"scm_update_on_launch":false,"organization":"spec_test_org","id":71,"description":""},"object1":"project","object2":"","object_association":""},{"id":952,"type":"activity_stream","url":"/api/v1/activity_stream/952/","related":{"project":["/api/v1/projects/70/"],"actor":"/api/v1/users/1/"},"summary_fields":{"project":[{"status":"successful","description":"","id":70,"scm_type":"git","name":"hello_repo"}],"actor":{"username":"admin","first_name":"","last_name":"","id":1}},"timestamp":"2018-04-20T11:28:53.363783Z","operation":"create","changes":{"credential":"hello_scm_cred-263","scm_branch":"","name":"hello_repo","scm_update_cache_timeout":0,"scm_clean":false,"scm_url":"https://github.com/jameswnl/ansible-examples","scm_delete_on_update":false,"local_path":"","scm_type":"git","timeout":0,"scm_update_on_launch":false,"organization":"spec_test_org","id":70,"description":""},"object1":"project","object2":"","object_association":""},{"id":951,"type":"activity_stream","url":"/api/v1/activity_stream/951/","related":{"host":["/api/v1/hosts/24/"],"actor":"/api/v1/users/1/"},"summary_fields":{"host":[{"description":"","has_inventory_sources":false,"id":24,"has_active_failures":false,"name":"hello_vm"}],"actor":{"username":"admin","first_name":"","last_name":"","id":1}},"timestamp":"2018-04-20T11:28:51.909619Z","operation":"create","changes":{"name":"hello_vm","variables":"","enabled":true,"instance_id":"4233080d-7467-de61-76c9-c8307b6e4830","inventory":"hello_inventory-24","id":24,"description":""},"object1":"host","object2":"","object_association":""},{"id":950,"type":"activity_stream","url":"/api/v1/activity_stream/950/","related":{"inventory":["/api/v1/inventories/24/"],"actor":"/api/v1/users/1/"},"summary_fields":{"inventory":[{"has_active_failures":false,"has_inventory_sources":false,"description":"inventory
        for miq spec tests","inventory_sources_with_failures":0,"groups_with_active_failures":0,"kind":"","hosts_with_active_failures":0,"organization_id":28,"total_hosts":1,"total_inventory_sources":0,"total_groups":0,"id":24,"name":"hello_inventory"}],"actor":{"username":"admin","first_name":"","last_name":"","id":1}},"timestamp":"2018-04-20T11:28:50.431353Z","operation":"create","changes":{"host_filter":"","kind":"","name":"hello_inventory","variables":"","organization":"spec_test_org","insights_credential":null,"id":24,"description":"inventory
        for miq spec tests"},"object1":"inventory","object2":"","object_association":""},{"id":949,"type":"activity_stream","url":"/api/v1/activity_stream/949/","related":{"credential":["/api/v1/credentials/270/"],"actor":"/api/v1/users/1/"},"summary_fields":{"credential":[{"kind":"satellite6","credential_type_id":8,"description":"","id":270,"cloud":true,"name":"hello_sat_cred"}],"actor":{"username":"admin","first_name":"","last_name":"","id":1}},"timestamp":"2018-04-20T11:28:49.027511Z","operation":"create","changes":{"inputs":"hidden","description":"","credential_type":"Red
        Hat Satellite 6-8","organization":"spec_test_org","id":270,"name":"hello_sat_cred"},"object1":"credential","object2":"","object_association":""},{"id":948,"type":"activity_stream","url":"/api/v1/activity_stream/948/","related":{"credential":["/api/v1/credentials/269/"],"actor":"/api/v1/users/1/"},"summary_fields":{"credential":[{"kind":"azure_rm","credential_type_id":11,"description":"","id":269,"cloud":true,"name":"hello_azure_cred"}],"actor":{"username":"admin","first_name":"","last_name":"","id":1}},"timestamp":"2018-04-20T11:28:47.339357Z","operation":"create","changes":{"inputs":"hidden","description":"","credential_type":"Microsoft
        Azure Resource Manager-11","organization":"spec_test_org","id":269,"name":"hello_azure_cred"},"object1":"credential","object2":"","object_association":""},{"id":947,"type":"activity_stream","url":"/api/v1/activity_stream/947/","related":{"credential":["/api/v1/credentials/268/"],"actor":"/api/v1/users/1/"},"summary_fields":{"credential":[{"kind":"gce","credential_type_id":10,"description":"","id":268,"cloud":true,"name":"hello_gce_cred"}],"actor":{"username":"admin","first_name":"","last_name":"","id":1}},"timestamp":"2018-04-20T11:28:45.661154Z","operation":"create","changes":{"inputs":"hidden","description":"","credential_type":"Google
        Compute Engine-10","organization":"spec_test_org","id":268,"name":"hello_gce_cred"},"object1":"credential","object2":"","object_association":""},{"id":946,"type":"activity_stream","url":"/api/v1/activity_stream/946/","related":{"credential":["/api/v1/credentials/267/"],"actor":"/api/v1/users/1/"},"summary_fields":{"credential":[{"kind":"openstack","credential_type_id":6,"description":"","id":267,"cloud":true,"name":"hello_openstack_cred"}],"actor":{"username":"admin","first_name":"","last_name":"","id":1}},"timestamp":"2018-04-20T11:28:43.996302Z","operation":"create","changes":{"inputs":"hidden","description":"","credential_type":"OpenStack-6","organization":"spec_test_org","id":267,"name":"hello_openstack_cred"},"object1":"credential","object2":"","object_association":""},{"id":945,"type":"activity_stream","url":"/api/v1/activity_stream/945/","related":{"credential":["/api/v1/credentials/266/"],"actor":"/api/v1/users/1/"},"summary_fields":{"credential":[{"kind":"aws","credential_type_id":5,"description":"","id":266,"cloud":true,"name":"hello_aws_cred"}],"actor":{"username":"admin","first_name":"","last_name":"","id":1}},"timestamp":"2018-04-20T11:28:42.336242Z","operation":"create","changes":{"inputs":"hidden","description":"","credential_type":"Amazon
        Web Services-5","organization":"spec_test_org","id":266,"name":"hello_aws_cred"},"object1":"credential","object2":"","object_association":""},{"id":944,"type":"activity_stream","url":"/api/v1/activity_stream/944/","related":{"credential":["/api/v1/credentials/265/"],"actor":"/api/v1/users/1/"},"summary_fields":{"credential":[{"kind":"net","credential_type_id":4,"description":"","id":265,"cloud":false,"name":"hello_network_cred"}],"actor":{"username":"admin","first_name":"","last_name":"","id":1}},"timestamp":"2018-04-20T11:28:40.726607Z","operation":"create","changes":{"inputs":"hidden","description":"","credential_type":"Network-4","organization":"spec_test_org","id":265,"name":"hello_network_cred"},"object1":"credential","object2":"","object_association":""},{"id":943,"type":"activity_stream","url":"/api/v1/activity_stream/943/","related":{"credential":["/api/v1/credentials/264/"],"actor":"/api/v1/users/1/"},"summary_fields":{"credential":[{"kind":"ssh","credential_type_id":1,"description":"","id":264,"cloud":false,"name":"hello_machine_cred"}],"actor":{"username":"admin","first_name":"","last_name":"","id":1}},"timestamp":"2018-04-20T11:28:39.072888Z","operation":"create","changes":{"inputs":"hidden","description":"","credential_type":"Machine-1","organization":"spec_test_org","id":264,"name":"hello_machine_cred"},"object1":"credential","object2":"","object_association":""},{"id":942,"type":"activity_stream","url":"/api/v1/activity_stream/942/","related":{"credential":["/api/v1/credentials/263/"],"actor":"/api/v1/users/1/"},"summary_fields":{"credential":[{"kind":"scm","credential_type_id":2,"description":"","id":263,"cloud":false,"name":"hello_scm_cred"}],"actor":{"username":"admin","first_name":"","last_name":"","id":1}},"timestamp":"2018-04-20T11:28:37.602175Z","operation":"create","changes":{"inputs":"hidden","description":"","credential_type":"Source
        Control-2","organization":"spec_test_org","id":263,"name":"hello_scm_cred"},"object1":"credential","object2":"","object_association":""},{"id":941,"type":"activity_stream","url":"/api/v1/activity_stream/941/","related":{"organization":["/api/v1/organizations/28/"],"actor":"/api/v1/users/1/"},"summary_fields":{"organization":[{"description":"for
        miq spec tests","id":28,"name":"spec_test_org"}],"actor":{"username":"admin","first_name":"","last_name":"","id":1}},"timestamp":"2018-04-20T11:28:35.851670Z","operation":"create","changes":{"description":"for
        miq spec tests","id":28,"name":"spec_test_org"},"object1":"organization","object2":"","object_association":""}]}'
    http_version: 
  recorded_at: Fri, 20 Apr 2018 12:03:41 GMT
- request:
    method: post
    uri: https://dev-ansible-tower3.example.com/api/v1/credentials/
    body:
      encoding: UTF-8
      string: '{"organization":28,"kind":"ssh","name":"test_stream","user":1}'
    headers:
      Authorization:
      - Basic YWRtaW46c21hcnR2bQ==
      User-Agent:
      - Faraday v0.9.2
      Content-Type:
      - application/json
      Accept-Encoding:
      - gzip;q=1.0,deflate;q=0.6,identity;q=0.3
      Accept:
      - "*/*"
  response:
    status:
      code: 201
      message: CREATED
    headers:
      Server:
      - nginx/1.12.2
      Date:
      - Fri, 20 Apr 2018 12:03:54 GMT
      Content-Type:
      - application/json
      Transfer-Encoding:
      - chunked
      Connection:
      - keep-alive
      X-Api-Time:
      - 0.282s
      X-Api-Total-Time:
      - 0.405s
      Allow:
      - GET, POST, HEAD, OPTIONS
      Content-Language:
      - en
      Vary:
      - Accept, Accept-Language, Cookie
      Location:
      - https://dev-ansible-tower3.example.com/api/v1/credentials/273/
      X-Api-Node:
      - localhost
      Strict-Transport-Security:
      - max-age=15768000
      X-Frame-Options:
      - DENY
    body:
      encoding: UTF-8
      string: '{"id":273,"type":"credential","url":"/api/v1/credentials/273/","related":{"created_by":"/api/v1/users/1/","modified_by":"/api/v1/users/1/","organization":"/api/v1/organizations/28/","owner_teams":"/api/v1/credentials/273/owner_teams/","owner_users":"/api/v1/credentials/273/owner_users/","activity_stream":"/api/v1/credentials/273/activity_stream/","access_list":"/api/v1/credentials/273/access_list/","object_roles":"/api/v1/credentials/273/object_roles/"},"summary_fields":{"host":{},"project":{},"organization":{"id":28,"name":"spec_test_org","description":"for
        miq spec tests"},"created_by":{"id":1,"username":"admin","first_name":"","last_name":""},"modified_by":{"id":1,"username":"admin","first_name":"","last_name":""},"object_roles":{"admin_role":{"id":1306,"description":"Can
        manage all aspects of the credential","name":"Admin"},"use_role":{"id":1308,"description":"Can
        use the credential in a job template","name":"Use"},"read_role":{"id":1307,"description":"May
        view settings for the credential","name":"Read"}},"user_capabilities":{"edit":true,"delete":true},"owners":[{"url":"/api/v1/users/1/","description":"
        ","type":"user","id":1,"name":"admin"},{"url":"/api/v1/organizations/28/","description":"for
        miq spec tests","type":"organization","id":28,"name":"spec_test_org"}]},"created":"2018-04-20T12:03:53.753Z","modified":"2018-04-20T12:03:53.803Z","name":"test_stream","description":"","organization":28,"kind":"ssh","cloud":false,"host":"","username":"","password":"","security_token":"","project":"","domain":"","ssh_key_data":"","ssh_key_unlock":"","become_method":"","become_username":"","become_password":"","vault_password":"","subscription":"","tenant":"","secret":"","client":"","authorize":false,"authorize_password":""}'
    http_version: 
  recorded_at: Fri, 20 Apr 2018 12:03:42 GMT
- request:
    method: get
    uri: https://dev-ansible-tower3.example.com/api/v1/activity_stream?id__gt=965&order_by=id
    body:
      encoding: US-ASCII
      string: ''
    headers:
      Authorization:
      - Basic YWRtaW46c21hcnR2bQ==
      User-Agent:
      - Faraday v0.9.2
      Accept-Encoding:
      - gzip;q=1.0,deflate;q=0.6,identity;q=0.3
      Accept:
      - "*/*"
  response:
    status:
      code: 301
      message: Moved Permanently
    headers:
      Server:
      - nginx/1.12.2
      Date:
      - Fri, 20 Apr 2018 12:03:54 GMT
      Content-Type:
      - text/html
      Content-Length:
      - '185'
      Location:
      - https://dev-ansible-tower3.example.com/api/v1/activity_stream/?id__gt=965&order_by=id
      Connection:
      - keep-alive
      Strict-Transport-Security:
      - max-age=15768000
      X-Frame-Options:
      - DENY
    body:
      encoding: UTF-8
      string: "<html>\r\n<head><title>301 Moved Permanently</title></head>\r\n<body
        bgcolor=\"white\">\r\n<center><h1>301 Moved Permanently</h1></center>\r\n<hr><center>nginx/1.12.2</center>\r\n</body>\r\n</html>\r\n"
    http_version: 
  recorded_at: Fri, 20 Apr 2018 12:03:43 GMT
- request:
    method: get
    uri: https://dev-ansible-tower3.example.com/api/v1/activity_stream/?id__gt=965&order_by=id
    body:
      encoding: US-ASCII
      string: ''
    headers:
      Authorization:
      - Basic YWRtaW46c21hcnR2bQ==
      User-Agent:
      - Faraday v0.9.2
      Accept-Encoding:
      - gzip;q=1.0,deflate;q=0.6,identity;q=0.3
      Accept:
      - "*/*"
  response:
    status:
      code: 200
      message: OK
    headers:
      Server:
      - nginx/1.12.2
      Date:
      - Fri, 20 Apr 2018 12:03:55 GMT
      Content-Type:
      - application/json
      Transfer-Encoding:
      - chunked
      Connection:
      - keep-alive
      X-Api-Time:
      - 0.151s
      X-Api-Total-Time:
      - 0.159s
      Allow:
      - GET, HEAD, OPTIONS
      Content-Language:
      - en
      Vary:
      - Accept, Accept-Language, Cookie
      X-Api-Node:
      - localhost
      Strict-Transport-Security:
      - max-age=15768000
      X-Frame-Options:
      - DENY
    body:
      encoding: UTF-8
      string: '{"count":2,"next":null,"previous":null,"results":[{"id":966,"type":"activity_stream","url":"/api/v1/activity_stream/966/","related":{"credential":["/api/v1/credentials/273/"],"actor":"/api/v1/users/1/"},"summary_fields":{"credential":[{"kind":"ssh","credential_type_id":1,"description":"","id":273,"cloud":false,"name":"test_stream"}],"actor":{"username":"admin","first_name":"","last_name":"","id":1}},"timestamp":"2018-04-20T12:03:53.798744Z","operation":"create","changes":{"inputs":"hidden","description":"","credential_type":"Machine-1","organization":"spec_test_org","id":273,"name":"test_stream"},"object1":"credential","object2":"","object_association":""},{"id":967,"type":"activity_stream","url":"/api/v1/activity_stream/967/","related":{"credential":["/api/v1/credentials/273/"],"role":["/api/v1/roles/1306/"],"user":["/api/v1/users/1/"],"actor":"/api/v1/users/1/"},"summary_fields":{"credential":[{"kind":"ssh","credential_type_id":1,"description":"","id":273,"cloud":false,"name":"test_stream"}],"user":[{"username":"admin","first_name":"","last_name":"","id":1}],"role":[{"id":1306,"role_field":"admin_role"}],"actor":{"username":"admin","first_name":"","last_name":"","id":1}},"timestamp":"2018-04-20T12:03:53.816865Z","operation":"associate","changes":{"relationship":"awx.main.models.rbac.Role_members","object2_pk":1,"object1":"credential","object2":"user","object1_pk":273,"action":"associate"},"object1":"credential","object2":"user","object_association":"role"}]}'
    http_version: 
  recorded_at: Fri, 20 Apr 2018 12:03:44 GMT
recorded_with: VCR 3.0.3
